…
### SQLite

Open an SQLite database with DuckDB:

```
duckdb bookmarks.sqlite
```
```
D .tables
items      meta       structure  tags       urls     
D FROM structure;
┌──────────────┬──────────────┬──────────┐
│     guid     │  parentGuid  │ position │
│   varchar    │   varchar    │  int64   │
├──────────────┼──────────────┼──────────┤
│ rnoJgZro_RvM │ 1CP0XvUQxJAF │        0 │
│ MLq5UkC1G_xL │ 1CP0XvUQxJAF │        1 │
│ pD9TpwGO4xUL │ 1CP0XvUQxJAF │        2 │
│ GkFjM8yGSkBs │ 1CP0XvUQxJAF │        3 │
│ WvEVYDNob8jQ │ 1CP0XvUQxJAF │        4 │
│      ·       │      ·       │        · │
│      ·       │      ·       │        · │
│      ·       │      ·       │        · │
│ 57SzSLw8FPQF │ unfiled_____ │     1688 │
│ KljkRT7YdSNJ │ yM78JWU2H7vM │        0 │
│ 3YwIVDgZgyeY │ yM78JWU2H7vM │        1 │
│ -84AePl9n1ia │ yM78JWU2H7vM │        2 │
│ AwVmm6-TOiZ4 │ z9dJRp3vc7hq │        0 │
├──────────────┴──────────────┴──────────┤
│ 3695 rows (10 shown)         3 columns │
└────────────────────────────────────────┘
```
…
```
#!/bin/sh
duckdb -cmd "ATTACH 'dbname=$*' AS pg (TYPE postgres); SET search_path = 'pg.public';"
```

So connecting via Unix sockets is as short as:

```
dpg shortbread
```

```
D FROM geometry_columns;
┌─────────────────┬────────────────┬───┬───────┬──────────────┐
│ f_table_catalog │ f_table_schema │ … │ srid  │     type     │
│     varchar     │    varchar     │   │ int32 │   varchar    │
├─────────────────┼────────────────┼───┼───────┼──────────────┤
│ shortbread      │ osmeq          │ … │  8857 │ GEOMETRY     │
│ shortbread      │ osm            │ … │  3857 │ POLYGON      │
│ shortbread      │ osmeq          │ … │  8857 │ MULTIPOLYGON │
│ shortbread      │ osmeq          │ … │  8857 │ POLYGON      │
│ shortbread      │ osmeq          │ … │  8857 │ LINESTRING   │
│     ·           │   ·            │ · │    ·  │     ·        │
│     ·           │   ·            │ · │    ·  │     ·        │
│     ·           │   ·            │ · │    ·  │     ·        │
│ shortbread      │ osmeq          │ … │  8857 │ LINESTRING   │
│ shortbread      │ osmeq          │ … │  8857 │ LINESTRING   │
│ shortbread      │ osmeq          │ … │  8857 │ POINT        │
│ shortbread      │ osmeq          │ … │  8857 │ POLYGON      │
│ shortbread      │ osmeq          │ … │  8857 │ POLYGON      │
├─────────────────┴────────────────┴───┴───────┴──────────────┤
│ 56 rows (10 shown)                      7 columns (4 shown) │
└─────────────────────────────────────────────────────────────┘
```
…
